<?xml version="1.0" encoding="UTF-8"?>
<svg width="17px" height="16px" viewBox="0 0 17 16" version="1.1" xmlns="http://www.w3.org/2000/svg" xmlns:xlink="http://www.w3.org/1999/xlink">
    <!-- Generator: Sketch 54.1 (76490) - https://sketchapp.com -->
    <title>rating_star</title>
    <desc>Created with Sketch.</desc>
    <g id="old-Settings" stroke="none" stroke-width="1" fill="none" fill-rule="evenodd">
        <g id="rating-2" transform="translate(-273.000000, -841.000000)" fill="#000000">
            <path d="M289.724997,847.966148 L286.275037,851.276245 L287.089313,855.950407 C287.147671,856.286936 287.006335,856.627503 286.725943,856.828523 C286.567283,856.942045 286.378531,856.999928 286.189779,856.999928 C286.044796,856.999928 285.898901,856.965827 285.765316,856.896726 L281.500167,854.689994 L277.235019,856.896726 C276.927727,857.056017 276.555695,857.029094 276.274391,856.82942 C275.994,856.628401 275.85312,856.288282 275.911934,855.951304 L276.726666,851.277143 L273.275794,847.966596 C273.026404,847.728334 272.937956,847.371613 273.044185,847.046751 C273.151783,846.721888 273.436734,846.485421 273.780499,846.436063 L278.548985,845.753582 L280.6827,841.500755 C280.835433,841.193841 281.152755,841 281.499712,841 C281.84758,841 282.163534,841.193841 282.317179,841.500306 L284.450894,845.753134 L289.220292,846.435614 C289.563145,846.484523 289.849008,846.721439 289.954782,847.046302 C290.063291,847.371164 289.972563,847.727885 289.724997,847.966148 Z" id="rating_star"></path>
        </g>
    </g>
</svg>